{
  "type": "service_account",
  "project_id": "kramp-integraton-tst",
  "private_key_id": "f4f8043fb1fc1e0752eeb89b262681796b6351a9",
  "private_key": "-----BEGIN PRIVATE KEY-----\nMIIEvQIBADANBgkqhkiG9w0BAQEFAASCBKcwggSjAgEAAoIBAQCsNgWJmxhR/AHl\nhWVNFHvNL2CJNBuePPNTEUQGUeFH1gcWbuUYceHpk50enKGdYJKDHmGrLgioX+nB\nJVbDY1ChnZTrqB6ES7rXGinGjVevGTYpAuww5i36VnFK0mApXAN6CZ6Z4ZU4js4T\nlXmkfypGOkyLYNgfVcHkNs1r/bRBsZ1LV0Mh/BX+GkdlwDhxYEz/e6e/ARVZFFOD\nvOCyGsTdrqpJdOnABky29YprivTFq3O9hhLJesYOYjWzvqliqijbKDZcTc4VqkkI\nHJGjQ3vYNrGKnfOsJt5fklHUwJ9HYJ76mUvzpu6vpJzAtXZneN013SVXmtOKA8/D\nUrknhljfAgMBAAECggEAJZPKJIszxNv9G/S+NJIWK6E9auL0bdR18ffQBKMESfUR\nads74VgkSCAeRko+V8V1YugTvtMWL4tySeOYaZ03wHROxRdTxWFy/THn0LwR2JLj\nRxKssETh3oDTStTaB9xco9oKgiB/u64pmIti1jqrYlShVD6HGltPqjktHPXoyfaX\n+nJx32V7qwumplKGqjOU9gDs/46kP69TWHiv7qX7skfp+ybGKkdEzwThXIUOtwJU\nTXRJb7mTl93WbMZUuOcCsjA0dAPGYuWQKJ7uYKfF31iQ6UbKjTwVyO4ZUuKILs6Q\nQCyNDetP2xJ69nkuSuxSWTJvF2BEJ6jpQ3El+x3IhQKBgQDtpVb0aO84AGUDV4WT\nRgwErkPt5W/rCyfADAkv59k+HO47zNh6r/HdJs9hwshmWUJreNHh+5YKmPqGDOKb\n0WqedVTEhXo/8iIhR+o5NEgNElThuK1Uks8do+HhrZFn45v8c1WC3uuPWyhQDD9d\nZzN7NPX4V5ThDqJaBulSyIT3EwKBgQC5guy1aJXyTwdbxofRlCfkk+KBiDqtgeQJ\nV+0cfP6mNcWJq0H7IcbQPmhVcQi+aoejY3T9z8y9FGg6Fz/YRUCWCgLWF6lT0ll+\nfTLkNzLPdzTKGnbQYZvLxzFnmvuRxKfJHqSnuyfFEzqJtsboulY9vByPz4fbjS66\nf4fHslmUhQKBgQDGpZTADQ8Z4sqNNpXDe6QELZ8+trEM6nA5ylXLo6QmlYxWlG7I\nb1ZfpFdpwqY9V5N7vqzCl8jd5u5TK2YpFa5n8m//Lgv4c/AvnaueUaOAubgWTock\n0OssPZdNTAblro7vQYFTOf/x/yL9dp9o9iFEdgq9oogicFcppelXd6Id3QKBgGzR\nct6a4dJIL03TcBos6RW49dX7vkfG+KfObuUWIR4ITr6JueOBFalT4km0S2e+/5+F\nGLxFp5iGHvlsZ+QKA2+/oZhKOuZTbnG3KSIbiu+NwmaHDYkAqK3pQ369t7HzBGUC\nV52YOCTvOZhMofMkUrBV5v8owk20TGPTqScn5EotAoGAGYJQklQl2HtYAR8VEYo+\ntyaZdwRiifY2lQipD/cZweO3pI34L+LXklwVRwqjVvZH/EGyqZGNvCBvaVKRyLow\nGWxGB3KNXEv87gFHAkZnCheixoeGn77PEj7uRHZH2EdA+T6KMb5bTAIq/UvtXY3y\nGEWqz5lchW68NyGAXQyvCi4=\n-----END PRIVATE KEY-----\n",
  "client_email": "davidei@kramp-integraton-tst.iam.gserviceaccount.com",
  "client_id": "111985491098490863862",
  "auth_uri": "https://accounts.google.com/o/oauth2/auth",
  "token_uri": "https://accounts.google.com/o/oauth2/token",
  "auth_provider_x509_cert_url": "https://www.googleapis.com/oauth2/v1/certs",
  "client_x509_cert_url": "https://www.googleapis.com/robot/v1/metadata/x509/davidei%40kramp-integraton-tst.iam.gserviceaccount.com"
}
